\relax 
\providecommand\hyper@newdestlabel[2]{}
\catcode `:\active 
\catcode `;\active 
\catcode `!\active 
\catcode `?\active 
\providecommand\HyperFirstAtBeginDocument{\AtBeginDocument}
\HyperFirstAtBeginDocument{\ifx\hyper@anchor\@undefined
\global\let\oldcontentsline\contentsline
\gdef\contentsline#1#2#3#4{\oldcontentsline{#1}{#2}{#3}}
\global\let\oldnewlabel\newlabel
\gdef\newlabel#1#2{\newlabelxx{#1}#2}
\gdef\newlabelxx#1#2#3#4#5#6{\oldnewlabel{#1}{{#2}{#3}}}
\AtEndDocument{\ifx\hyper@anchor\@undefined
\let\contentsline\oldcontentsline
\let\newlabel\oldnewlabel
\fi}
\fi}
\global\let\hyper@last\relax 
\gdef\HyperFirstAtBeginDocument#1{#1}
\providecommand\HyField@AuxAddToFields[1]{}
\providecommand\HyField@AuxAddToCoFields[2]{}
\select@language{french}
\@writefile{toc}{\select@language{french}}
\@writefile{lof}{\select@language{french}}
\@writefile{lot}{\select@language{french}}
\@writefile{toc}{\contentsline {section}{\numberline {1}Classifieur euclidien, K plus proches voisins}{1}{section.1}}
\@writefile{toc}{\contentsline {subsection}{\numberline {1.1}Test des fonctions}{1}{subsection.1.1}}
\@writefile{lof}{\contentsline {figure}{\numberline {1}{\ignorespaces Fronti\IeC {\`e}re de d\IeC {\'e}cision du jeu de donn\IeC {\'e}es \IeC {\`a} l'aide du classifieur euclidien.\relax }}{1}{figure.caption.1}}
\providecommand*\caption@xref[2]{\@setref\relax\@undefined{#1}}
\newlabel{fig:acp_iris_1}{{1}{1}{Frontière de décision du jeu de données à l'aide du classifieur euclidien.\relax }{figure.caption.1}{}}
\@writefile{lof}{\contentsline {figure}{\numberline {2}{\ignorespaces Fronti\IeC {\`e}re de d\IeC {\'e}cision du jeu de donn\IeC {\'e}es \IeC {\`a} l'aide des K plus proches voisins.\relax }}{1}{figure.caption.1}}
\newlabel{fig:acp_iris_1}{{2}{1}{Frontière de décision du jeu de données à l'aide des K plus proches voisins.\relax }{figure.caption.1}{}}
\@writefile{toc}{\contentsline {subsection}{\numberline {1.2}\IeC {\'E}valuation des performances}{1}{subsection.1.2}}
\@writefile{toc}{\contentsline {subsubsection}{\numberline {1.2.1}Jeux de donn\IeC {\'e}es Synth1-40, Synth1-100, Synth1-500 et Synth1-1000}{2}{subsubsection.1.2.1}}
\@writefile{lot}{\contentsline {table}{\numberline {1}{\ignorespaces Estimation des param\IeC {\`e}tres pour le jeu de donn\IeC {\'e}es Synth1-40.\relax }}{2}{table.caption.2}}
\newlabel{table:Param_synth1-40}{{1}{2}{Estimation des paramètres pour le jeu de données Synth1-40.\relax }{table.caption.2}{}}
\@writefile{lot}{\contentsline {table}{\numberline {2}{\ignorespaces Estimation des param\IeC {\`e}tres pour le jeu de donn\IeC {\'e}es Synth1-100.\relax }}{2}{table.caption.3}}
\newlabel{table:Param_synth1-100}{{2}{2}{Estimation des paramètres pour le jeu de données Synth1-100.\relax }{table.caption.3}{}}
\@writefile{lot}{\contentsline {table}{\numberline {3}{\ignorespaces Estimation des param\IeC {\`e}tres pour le jeu de donn\IeC {\'e}es Synth1-500.\relax }}{2}{table.caption.4}}
\newlabel{table:Param_synth1-500}{{3}{2}{Estimation des paramètres pour le jeu de données Synth1-500.\relax }{table.caption.4}{}}
\@writefile{lot}{\contentsline {table}{\numberline {4}{\ignorespaces Estimation des param\IeC {\`e}tres pour le jeu de donn\IeC {\'e}es Synth1-1000.\relax }}{3}{table.caption.5}}
\newlabel{table:Param_synth1-1000}{{4}{3}{Estimation des paramètres pour le jeu de données Synth1-1000.\relax }{table.caption.5}{}}
\@writefile{lot}{\contentsline {table}{\numberline {5}{\ignorespaces Estimation ponctuelle du taux d'erreur $\epsilon $ et intervalle de confiance.\relax }}{3}{table.caption.6}}
\newlabel{table:Estim_synth1}{{5}{3}{Estimation ponctuelle du taux d'erreur $\epsilon $ et intervalle de confiance.\relax }{table.caption.6}{}}
\@writefile{toc}{\contentsline {subsubsection}{\numberline {1.2.2}Jeu de donn\IeC {\'e}es Synth2-1000}{4}{subsubsection.1.2.2}}
\@writefile{lot}{\contentsline {table}{\numberline {6}{\ignorespaces Estimation des param\IeC {\`e}tres pour le jeu de donn\IeC {\'e}es Synth2-1000.\relax }}{4}{table.caption.7}}
\newlabel{table:Param_synth2-1000}{{6}{4}{Estimation des paramètres pour le jeu de données Synth2-1000.\relax }{table.caption.7}{}}
\@writefile{lot}{\contentsline {table}{\numberline {7}{\ignorespaces Estimation ponctuelle du taux d'erreur $\epsilon $ et intervalle de confiance.\relax }}{4}{table.caption.8}}
\newlabel{table:Estim_synth2}{{7}{4}{Estimation ponctuelle du taux d'erreur $\epsilon $ et intervalle de confiance.\relax }{table.caption.8}{}}
\@writefile{toc}{\contentsline {section}{\numberline {2}R\IeC {\`e}gle de Bayes}{4}{section.2}}
\@writefile{toc}{\contentsline {subsection}{\numberline {2.1}Distributions marginales}{4}{subsection.2.1}}
\@writefile{toc}{\contentsline {subsection}{\numberline {2.2}Courbes d'iso-densit\IeC {\'e}}{5}{subsection.2.2}}
\@writefile{toc}{\contentsline {subsection}{\numberline {2.3}Expression de la r\IeC {\`e}gle de Bayes}{5}{subsection.2.3}}
\@writefile{toc}{\contentsline {subsection}{\numberline {2.4}Fronti\IeC {\`e}res de d\IeC {\'e}cision}{5}{subsection.2.4}}
\@writefile{toc}{\contentsline {subsection}{\numberline {2.5}Erreur de Bayes}{5}{subsection.2.5}}
\@writefile{toc}{\contentsline {section}{\numberline {3}Conclusion}{5}{section.3}}
